…
Now, let’s examine property_type, as it is an important variable to describe the general characteristics one should expect from the property. We can use the count() function to determine how many categories are there and their frequency.

#List of the type of properties and their frequency:
listing_type <- listing %>% 
  count(property_type) %>% 
  arrange(desc(n)) %>% 
  mutate(share = n / sum(n), share=scales::percent(share))
listing_type

## # A tibble: 43 x 3
##    property_type          n share   
##    <chr>              <int> <chr>   
##  1 Apartment          14958 63.0394%
##  2 Serviced apartment  1700 7.1645% 
##  3 House               1564 6.5914% 
##  4 Boutique hotel      1113 4.6907% 
##  5 Townhouse            692 2.9164% 
##  6 Condominium          629 2.6509% 
##  7 Aparthotel           590 2.4865% 
##  8 Bed and breakfast    585 2.4654% 
##  9 Hotel                545 2.2969% 
## 10 Loft                 436 1.8375% 
## # … with 33 more rows
…
Since the vast majority of the observations in the data are one of the top four or five property types, we would like to create a simplified version of property_type variable that has 5 categories: the top four categories and Other.

listing <- listing %>%
  mutate(prop_type_simplified = case_when(
    property_type %in% c("Apartment","Serviced apartment", "House","Boutique hotel") ~ property_type, 
    TRUE ~ "Other"
  ))

#Check that prop_type_simplified was correctly made:
listing_prop_sum <- listing %>%
  count(property_type, prop_type_simplified) %>%
  arrange(desc(n))
listing_prop_sum

## # A tibble: 43 x 3
##    property_type      prop_type_simplified     n
##    <chr>              <chr>                <int>
##  1 Apartment          Apartment            14958
##  2 Serviced apartment Serviced apartment    1700
##  3 House              House                 1564
##  4 Boutique hotel     Boutique hotel        1113
##  5 Townhouse          Other                  692
##  6 Condominium        Other                  629
##  7 Aparthotel         Other                  590
##  8 Bed and breakfast  Other                  585
##  9 Hotel              Other                  545
## 10 Loft               Other                  436
## # … with 33 more rows

Airbnb is most commonly used for travel purposes, i.e., as an alternative to traditional hotels. We only want to include listings in our regression analysis that are intended for travel purposes.

Thus, our last step in preparing the data for analysis will be to study minimum_nights variable in order to define the most common values and how they are related to the different purposes of Airbnb listings. Remember, we want to exclude other purposes different than traveling, such as short-term rentals for work, etc.

#We check the different values for minimum_nights and their frequency:
listing_nights <- listing %>% 
  count(minimum_nights) %>% 
  arrange(desc(n))
listing_nights  

## # A tibble: 65 x 2
##    minimum_nights     n
##             <dbl> <int>
##  1              1 13228
##  2              2  4511
##  3              3  2682
##  4              7   702
##  5              5   701
##  6              4   490
##  7             30   324
##  8             10   185
##  9             15   179
## 10              6   138
## # … with 55 more rows
…
model6 %>% broom::tidy(conf.int = TRUE)

## # A tibble: 21 x 7
##    term                estimate std.error statistic   p.value conf.low conf.high
##    <chr>                  <dbl>     <dbl>     <dbl>     <dbl>    <dbl>     <dbl>
##  1 (Intercept)          6.47e+0  0.0423    153.     0.         6.39e+0  6.56    
##  2 prop_type_simplifi…  3.47e-1  0.0288     12.0    3.58e- 33  2.91e-1  0.404   
##  3 prop_type_simplifi… -1.99e-3  0.0251     -0.0794 9.37e-  1 -5.11e-2  0.0472  
##  4 prop_type_simplifi…  1.46e-1  0.0171      8.50   2.17e- 17  1.12e-1  0.179   
##  5 prop_type_simplifi…  1.06e-1  0.0222      4.78   1.78e-  6  6.27e-2  0.150   
##  6 number_of_reviews   -4.73e-4  0.000180   -2.62   8.75e-  3 -8.26e-4 -0.000119
##  7 review_scores_rati…  1.92e-3  0.000422    4.55   5.44e-  6  1.09e-3  0.00275 
##  8 room_typeHotel room -1.84e-1  0.0299     -6.17   7.29e- 10 -2.43e-1 -0.126   
##  9 room_typePrivate r… -5.79e-1  0.0145    -40.0    2.00e-323 -6.07e-1 -0.550   
## 10 room_typeShared ro… -9.84e-1  0.0496    -19.8    9.13e- 86 -1.08e+0 -0.887   
## # … with 11 more rows
…
Grouping properties by city area

Lastly, we saw when we skimmed through the data that there are 3 more variables related to neighbourhoods: neighbourhood, neighbourhood_cleansed, and neighbourhood_group_cleansed. If there are many different neighbourhoods in Istanbul, which is probably the case, it wouldn’t make sense to include them all in our model. First, we will check how many different neighbourhoods are in Istanbul, using neighbourhood_cleansed, which is equal to neighbourhood but excluding accents and special characters from the words. We must say also that neighbourhood_group_cleansed is not relevant, as it is missing in all observations.

#List of the different neighbourhoods and their frequency:
listing_neighbourhood <- listing_price %>% 
  count(neighbourhood_cleansed) %>% 
  arrange(desc(n)) %>% 
  mutate(share = n / sum(n), share=scales::percent(share))
listing_neighbourhood

## # A tibble: 39 x 3
##    neighbourhood_cleansed     n share   
##    <chr>                  <int> <chr>   
##  1 Beyoglu                 5738 28.0669%
##  2 Sisli                   2823 13.8085%
##  3 Fatih                   2671 13.0650%
##  4 Kadikoy                 1998 9.7730% 
##  5 Besiktas                1491 7.2931% 
##  6 Uskudar                  697 3.4093% 
##  7 Kagithane                596 2.9153% 
##  8 Esenyurt                 493 2.4115% 
##  9 Atasehir                 353 1.7267% 
## 10 Maltepe                  320 1.5653% 
## # … with 29 more rows
…
                                  review_scores_rating + 
                                  room_type +
                                  bathrooms +
                                  bedrooms +
                                  beds +
                                  accommodates +
                                  is_location_exact +
                                  cancellation_policy +
                                  neighbourhood_simplified+
                                  host_is_superhost+
                                  reviews_per_month,
             data = listing_price)
model7 %>% broom::tidy(conf.int = TRUE)

## # A tibble: 26 x 7
##    term                 estimate std.error statistic  p.value conf.low conf.high
##    <chr>                   <dbl>     <dbl>     <dbl>    <dbl>    <dbl>     <dbl>
##  1 (Intercept)           6.54e+0  0.0416     157.    0.        6.45e+0   6.62   
##  2 prop_type_simplifie…  3.08e-1  0.0283      10.9   2.73e-27  2.52e-1   0.363  
##  3 prop_type_simplifie…  2.17e-2  0.0247       0.877 3.81e- 1 -2.68e-2   0.0701 
##  4 prop_type_simplifie…  1.43e-1  0.0169       8.45  3.49e-17  1.10e-1   0.176  
##  5 prop_type_simplifie…  1.07e-1  0.0218       4.92  8.99e- 7  6.43e-2   0.150  
##  6 number_of_reviews     7.34e-4  0.000233     3.15  1.63e- 3  2.77e-4   0.00119
##  7 review_scores_rating  2.54e-3  0.000415     6.13  9.40e-10  1.73e-3   0.00336
##  8 room_typeHotel room  -2.09e-1  0.0293      -7.13  1.10e-12 -2.66e-1  -0.152  
##  9 room_typePrivate ro… -5.80e-1  0.0143     -40.5   0.       -6.08e-1  -0.552  
## 10 room_typeShared room -1.00e+0  0.0486     -20.7   1.03e-92 -1.10e+0  -0.909  
## # … with 16 more rows
…
