…
Secondly, recall that GDP is the sum of Household Expenditure (Consumption C), Gross Capital Formation (business investment I), Government Expenditure (G) and Net Exports (exports - imports). Even though there is an indicator Gross Domestic Product (GDP) in your dataframe, we would like to calculate it given its components discussed above.

We will also check the % difference between what we calculated as GDP and the GDP figure included in the dataframe.

## # A tibble: 10,560 x 3
##    Year  Country     GDP_Difference_Percentage
##    <chr> <chr>                           <dbl>
##  1 1970  Afghanistan                     -40.8
##  2 1971  Afghanistan                     -42.5
##  3 1972  Afghanistan                     -33.6
##  4 1973  Afghanistan                     -29.4
##  5 1974  Afghanistan                     -26.9
##  6 1975  Afghanistan                     -27.5
##  7 1976  Afghanistan                     -24.6
##  8 1977  Afghanistan                     -17.7
##  9 1978  Afghanistan                     -19.0
## 10 1979  Afghanistan                     -19.6
## #  with 10,550 more rows

Lastly, this last chart shows us the different dynamic among these three countries (Germany, India and United States). In Germany, in 40 years there have no been important variations in the proportion of household or government expenditure among the total GDP. However, the proportion of net exports did increase, something that did not happen in India and in the US when compared to 1970. Moreover, India has experienced an important reduction in household expenditure and an increase in gross capital formation. A possible explanation of this is that households save more money and it ends up in investments and creation of new family businesses.

## # A tibble: 10,560 x 6
##    Year  Country Gov_Expenditure Net_Exports_prop Capital_formati
##    <chr> <chr>              <dbl>            <dbl>            <dbl>
##  1 1970  Afghan             5.87           -1.13              15.5
##  2 1971  Afghan             6.21           -2.01              17.1
##  3 1972  Afghan             6.77           -1.45              15.5
##  4 1973  Afghan             6.49           -0.923             14.2
##  5 1974  Afghan             6.08           -1.52              16.7
##  6 1975  Afghan             8.00           -1.91              18.3
##  7 1976  Afghan             7.65           -1.80              24.8
##  8 1977  Afghan             7.96           -2.92              22.6
##  9 1978  Afghan             8.08           -3.02              24.7
## 10 1979  Afghan             8.15           -2.92              23.9
## #  with 10,550 more rows, and 1 more variable:
## #   Household_Consumption_prop <dbl>
…
